{
    "description": "Met behulp van de CBS OData API kan je Articles, Pages, Figures, Events en Flash data van de CBS website ophalen.",
    "organization_name": "Centraal Bureau voor de Statistiek (CBS)",
    "service_name": "CBS OData",
    "api_type": "REST/JSON",
    "api_authentication": "Onbekend",
    "tags": [],
    "environments": [{
        "name": "Productie",
        "api_url": "https://www.cbs.nl/odata/v1/",
        "specification_url": "https://www.cbs.nl/odata/v1/$metadata",
        "documentation_url": "https://www.cbs.nl/nl-nl/onze-diensten/open-data/website-open-data"
    }],
    "contact": {
        "email": "",
        "phone": "",
        "fax": "",
        "chat": "",
        "url": "https://www.cbs.nl/nl-nl/over-ons/contact"
    },
    "is_reference_implementation": false,
    "terms_of_use": {
        "government_only": false,
        "pay_per_use": false,
        "uptime_guarantee": 99.5,
        "support_response_time": ""
    }
}
